{"albums":{"href":"https://api.spotify.com/v1/search?query=artist%3Agorillaz&type=album&market=AR&offset=0&limit=20","items":[{"album_type":"album","artists":[{"external_urls":{"spotify":"https://open.spotify.com/artist/3AA28KZvwAUcZuOKwyblJQ"},"href":"https://api.spotify.com/v1/artists/3AA28KZvwAUcZuOKwyblJQ","id":"3AA28KZvwAUcZuOKwyblJQ","name":"Gorillaz","type":"artist","uri":"spotify:artist:3AA28KZvwAUcZuOKwyblJQ"}],"available_markets":["AD","AE","AR","AT","AU","BE","BG","BH","BO","BR","CA","CH","CL","CO","CR","CY","CZ","DE","DK","DO","DZ","EC","EE","EG","ES","FI","FR","GB","GR","GT","HK","HN","HU","ID","IE","IL","IS","IT","JO","JP","KW","LB","LT","LU","LV","MA","MC","MT","MX","MY","NI","NL","NO","NZ","OM","PA","PE","PH","PL","PT","PY","QA","RO","SA","SE","SG","SK","SV","TH","TN","TR","TW","US","UY","VN","ZA"],"external_urls":{"spotify":"https://open.spotify.com/album/0bUTHlWbkSQysoM3VsWldT"},"href":"https://api.spotify.com/v1/albums/0bUTHlWbkSQysoM3VsWldT","id":"0bUTHlWbkSQysoM3VsWldT","images":[{"height":640,"url":"https://i.scdn.co/image/ab67616d0000b27319d85a472f328a6ed9b704cf","width":640},{"height":300,"url":"https://i.scdn.co/image/ab67616d00001e0219d85a472f328a6ed9b704cf","width":300},{"height":64,"url":"https://i.scdn.co/image/ab67616d0000485119d85a472f328a6ed9b704cf","width":64}],"name":"Demon Days","release_date":"2005-05-23","release_date_precision":"day","total_tracks":15,"type":"album","uri":"spotify:album:0bUTHlWbkSQysoM3VsWldT"},{"album_type":"album","artists":[{"external_urls":{"spotify":"https://open.spotify.com/artist/3AA28KZvwAUcZuOKwyblJQ"},"href":"https://api.spotify.com/v1/artists/3AA28KZvwAUcZuOKwyblJQ","id":"3AA28KZvwAUcZuOKwyblJQ","name":"Gorillaz","type":"artist","uri":"spotify:artist:3AA28KZvwAUcZuOKwyblJQ"}],"available_markets":["AD","AE","AR","AT","AU","BE","BG","BH","BO","BR","CA","CH","CL","CO","CR","CY","CZ","DE","DK","DO","DZ","EC","EE","EG","ES","FI","FR","GB","GR","GT","HK","HN","HU","ID","IE","IL","IS","IT","JO","JP","KW","LB","LI","LT","LU","LV","MA","MC","MT","MX","MY","NI","NL","NO","NZ","OM","PA","PE","PH","PL","PS","PT","PY","QA","RO","SA","SE","SG","SK","SV","TH","TN","TR","TW","US","UY","VN","ZA"],"external_urls":{"spotify":"https://open.spotify.com/album/2dIGnmEIy1WZIcZCFSj6i8"},"href":"https://api.spotify.com/v1/albums/2dIGnmEIy1WZIcZCFSj6i8","id":"2dIGnmEIy1WZIcZCFSj6i8","images":[{"height":640,"url":"https://i.scdn.co/image/ab67616d0000b273661d019f34569f79eae9e985","width":640},{"height":300,"url":"https://i.scdn.co/image/ab67616d00001e02661d019f34569f79eae9e985","width":300},{"height":64,"url":"https://i.scdn.co/image/ab67616d00004851661d019f34569f79eae9e985","width":64}],"name":"Plastic Beach","release_date":"2010-03-03","release_date_precision":"day","total_tracks":16,"type":"album","uri":"spotify:album:2dIGnmEIy1WZIcZCFSj6i8"},{"album_type":"album","artists":[{"external_urls":{"spotify":"https://open.spotify.com/artist/3AA28KZvwAUcZuOKwyblJQ"},"href":"https://api.spotify.com/v1/artists/3AA28KZvwAUcZuOKwyblJQ","id":"3AA28KZvwAUcZuOKwyblJQ","name":"Gorillaz","type":"artist","uri":"spotify:artist:3AA28KZvwAUcZuOKwyblJQ"}],"available_markets":["AD","AE","AR","AT","AU","BE","BG","BH","BO","BR","CA","CH","CL","CO","CR","CY","CZ","DE","DK","DO","DZ","EC","EE","EG","ES","FI","FR","GB","GR","GT","HK","HN","HU","ID","IE","IL","IS","IT","JO","JP","KW","LB","LT","LU","LV","MA","MC","MT","MX","MY","NI","NL","NO","NZ","OM","PA","PE","PH","PL","PT","PY","QA","RO","SA","SE","SG","SK","SV","TH","TN","TR","TW","UY","VN","ZA"],"external_urls":{"spotify":"https://open.spotify.com/album/4tUxQkrduOE8sfgwJ5BI2F"},"href":"https://api.spotify.com/v1/albums/4tUxQkrduOE8sfgwJ5BI2F","id":"4tUxQkrduOE8sfgwJ5BI2F","images":[{"height":640,"url":"https://i.scdn.co/image/ab67616d0000b2734641fc5389546746bb52e8b0","width":640},{"height":300,"url":"https://i.scdn.co/image/ab67616d00001e024641fc5389546746bb52e8b0","width":300},{"height":64,"url":"https://i.scdn.co/image/ab67616d000048514641fc5389546746bb52e8b0","width":64}],"name":"Gorillaz","release_date":"2001-03-26","release_date_precision":"day","total_tracks":17,"type":"album","uri":"spotify:album:4tUxQkrduOE8sfgwJ5BI2F"},{"album_type":"album","artists":[{"external_urls":{"spotify":"https://open.spotify.com/artist/3AA28KZvwAUcZuOKwyblJQ"},"href":"https://api.spotify.com/v1/artists/3AA28KZvwAUcZuOKwyblJQ","id":"3AA28KZvwAUcZuOKwyblJQ","name":"Gorillaz","type":"artist","uri":"spotify:artist:3AA28KZvwAUcZuOKwyblJQ"}],"available_markets":["AD","AE","AR","AT","AU","BE","BG","BH","BO","BR","CA","CH","CL","CO","CR","CY","CZ","DE","DK","DO","DZ","EC","EE","EG","ES","FI","FR","GB","GR","GT","HK","HN","HU","ID","IE","IL","IS","IT","JO","JP","KW","LB","LI","LT","LU","LV","MA","MC","MT","MX","MY","NI","NL","NO","NZ","OM","PA","PE","PH","PL","PS","PT","PY","QA","RO","SA","SE","SG","SK","SV","TH","TN","TR","TW","US","UY","VN","ZA"],"external_urls":{"spotify":"https://open.spotify.com/album/0NvirtaDCaZU5PAW1O5FDE"},"href":"https://api.spotify.com/v1/albums/0NvirtaDCaZU5PAW1O5FDE","id":"0NvirtaDCaZU5PAW1O5FDE","images":[{"height":640,"url":"https://i.scdn.co/image/ab67616d0000b273a5952c0e2e649f588603b743","width":640},{"height":300,"url":"https://i.scdn.co/image/ab67616d00001e02a5952c0e2e649f588603b743","width":300},{"height":64,"url":"https://i.scdn.co/image/ab67616d00004851a5952c0e2e649f588603b743","width":64}],"name":"Humanz (Deluxe)","release_date":"2017-04-28","release_date_precision":"day","total_tracks":26,"type":"album","uri":"spotify:album:0NvirtaDCaZU5PAW1O5FDE"},{"album_type":"album","artists":[{"external_urls":{"spotify":"https://open.spotify.com/artist/3AA28KZvwAUcZuOKwyblJQ"},"href":"https://api.spotify.com/v1/artists/3AA28KZvwAUcZuOKwyblJQ","id":"3AA28KZvwAUcZuOKwyblJQ","name":"Gorillaz","type":"artist","uri":"spotify:artist:3AA28KZvwAUcZuOKwyblJQ"}],"available_markets":["AD","AE","AR","AT","AU","BE","BG","BH","BO","BR","CA","CH","CL","CO","CR","CY","CZ","DE","DK","DO","DZ","EC","EE","EG","ES","FI","FR","GB","GR","GT","HK","HN","HU","ID","IE","IL","IS","IT","JO","JP","KW","LB","LI","LT","LU","LV","MA","MC","MT","MX","MY","NI","NL","NO","NZ","OM","PA","PE","PH","PL","PS","PT","PY","QA","RO","SA","SE","SG","SK","SV","TH","TN","TR","TW","US","UY","VN","ZA"],"external_urls":{"spotify":"https://open.spotify.com/album/1amYhlukNF8WdaQC3gKkgL"},"href":"https://api.spotify.com/v1/albums/1amYhlukNF8WdaQC3gKkgL","id":"1amYhlukNF8WdaQC3gKkgL","images":[{"height":640,"url":"https://i.scdn.co/image/ab67616d0000b2734d9f7b88e82db31d13ac6668","width":640},{"height":300,"url":"https://i.scdn.co/image/ab67616d00001e024d9f7b88e82db31d13ac6668","width":300},{"height":64,"url":"https://i.scdn.co/image/ab67616d000048514d9f7b88e82db31d13ac6668","width":64}],"name":"The Now Now","release_date":"2018-06-29","release_date_precision":"day","total_tracks":11,"type":"album","uri":"spotify:album:1amYhlukNF8WdaQC3gKkgL"},{"album_type":"album","artists":[{"external_urls":{"spotify":"https://open.spotify.com/artist/3AA28KZvwAUcZuOKwyblJQ"},"href":"https://api.spotify.com/v1/artists/3AA28KZvwAUcZuOKwyblJQ","id":"3AA28KZvwAUcZuOKwyblJQ","name":"Gorillaz","type":"artist","uri":"spotify:artist:3AA28KZvwAUcZuOKwyblJQ"}],"available_markets":["AD","AE","AR","AT","AU","BE","BG","BH","BO","BR","CA","CH","CL","CO","CR","CY","CZ","DE","DK","DO","DZ","EC","EE","EG","ES","FI","FR","GB","GR","GT","HK","HN","HU","ID","IL","IS","IT","JO","JP","KW","LB","LT","LU","LV","MA","MC","MT","MX","MY","NI","NL","NO","NZ","OM","PA","PE","PH","PL","PT","PY","QA","RO","SA","SE","SG","SK","SV","TH","TN","TR","TW","US","UY","VN","ZA"],"external_urls":{"spotify":"https://open.spotify.com/album/5jJGGsAztgUEXUHHZ2zrah"},"href":"https://api.spotify.com/v1/albums/5jJGGsAztgUEXUHHZ2zrah","id":"5jJGGsAztgUEXUHHZ2zrah","images":[{"height":640,"url":"https://i.scdn.co/image/ab67616d0000b273bfcb1c9ce002a2c2cd5e9f34","width":640},{"height":300,"url":"https://i.scdn.co/image/ab67616d00001e02bfcb1c9ce002a2c2cd5e9f34","width":300},{"height":64,"url":"https://i.scdn.co/image/ab67616d00004851bfcb1c9ce002a2c2cd5e9f34","width":64}],"name":"The Fall","release_date":"2010","release_date_precision":"year","total_tracks":15,"type":"album","uri":"spotify:album:5jJGGsAztgUEXUHHZ2zrah"},{"album_type":"album","artists":[{"external_urls":{"spotify":"https://open.spotify.com/artist/3AA28KZvwAUcZuOKwyblJQ"},"href":"https://api.spotify.com/v1/artists/3AA28KZvwAUcZuOKwyblJQ","id":"3AA28KZvwAUcZuOKwyblJQ","name":"Gorillaz","type":"artist","uri":"spotify:artist:3AA28KZvwAUcZuOKwyblJQ"}],"available_markets":["AE","AR","AT","AU","BE","BG","BH","BO","BR","CA","CH","CL","CO","CR","CY","CZ","DE","DK","DO","EC","EE","EG","ES","FI","FR","GB","GR","GT","HK","HN","HU","ID","IE","IL","IS","IT","JO","JP","KW","LB","LT","LU","LV","MT","MX","MY","NI","NL","NO","NZ","OM","PA","PE","PH","PL","PT","PY","QA","RO","SA","SE","SG","SK","SV","TH","TN","TR","TW","US","UY","VN","ZA"],"external_urls":{"spotify":"https://open.spotify.com/album/0J3u0IeHzuymSz7v934vrd"},"href":"https://api.spotify.com/v1/albums/0J3u0IeHzuymSz7v934vrd","id":"0J3u0IeHzuymSz7v934vrd","images":[{"height":640,"url":"https://i.scdn.co/image/ab67616d0000b27380d8a81e97f8f33dfe7fab51","width":640},{"height":300,"url":"https://i.scdn.co/image/ab67616d00001e0280d8a81e97f8f33dfe7fab51","width":300},{"height":64,"url":"https://i.scdn.co/image/ab67616d0000485180d8a81e97f8f33dfe7fab51","width":64}],"name":"Demon Days Live at the Manchester Opera House","release_date":"2011-11-25","release_date_precision":"day","total_tracks":17,"type":"album","uri":"spotify:album:0J3u0IeHzuymSz7v934vrd"},{"album_type":"single","artists":[{"external_urls":{"spotify":"https://open.spotify.com/artist/3AA28KZvwAUcZuOKwyblJQ"},"href":"https://api.spotify.com/v1/artists/3AA28KZvwAUcZuOKwyblJQ","id":"3AA28KZvwAUcZuOKwyblJQ","name":"Gorillaz","type":"artist","uri":"spotify:artist:3AA28KZvwAUcZuOKwyblJQ"}],"available_markets":["AD","AE","AR","AT","AU","BE","BG","BH","BO","BR","CA","CH","CL","CO","CR","CY","CZ","DE","DK","DO","DZ","EC","EE","EG","ES","FI","FR","GB","GR","GT","HK","HN","HU","ID","IE","IL","IS","IT","JO","JP","KW","LB","LI","LT","LU","LV","MA","MC","MT","MX","MY","NI","NL","NO","NZ","OM","PA","PE","PH","PL","PS","PT","PY","QA","RO","SA","SE","SG","SK","SV","TH","TN","TR","TW","UY","VN","ZA"],"external_urls":{"spotify":"https://open.spotify.com/album/4eqJ2bgFYVtM6JaZCLlONE"},"href":"https://api.spotify.com/v1/albums/4eqJ2bgFYVtM6JaZCLlONE","id":"4eqJ2bgFYVtM6JaZCLlONE","images":[{"height":640,"url":"https://i.scdn.co/image/ab67616d0000b273985ec9fdac6f9c640c1db15b","width":640},{"height":300,"url":"https://i.scdn.co/image/ab67616d00001e02985ec9fdac6f9c640c1db15b","width":300},{"height":64,"url":"https://i.scdn.co/image/ab67616d00004851985ec9fdac6f9c640c1db15b","width":64}],"name":"Dirty Harry","release_date":"2005-11-18","release_date_precision":"day","total_tracks":3,"type":"album","uri":"spotify:album:4eqJ2bgFYVtM6JaZCLlONE"},{"album_type":"album","artists":[{"external_urls":{"spotify":"https://open.spotify.com/artist/3AA28KZvwAUcZuOKwyblJQ"},"href":"https://api.spotify.com/v1/artists/3AA28KZvwAUcZuOKwyblJQ","id":"3AA28KZvwAUcZuOKwyblJQ","name":"Gorillaz","type":"artist","uri":"spotify:artist:3AA28KZvwAUcZuOKwyblJQ"}],"available_markets":["AD","AE","AR","AT","AU","BE","BG","BH","BO","BR","CA","CH","CL","CO","CR","CY","CZ","DE","DK","DO","DZ","EC","EE","EG","ES","FI","FR","GB","GR","GT","HK","HN","HU","ID","IE","IL","IS","IT","JO","JP","KW","LB","LT","LU","LV","MA","MC","MT","MX","MY","NI","NL","NO","NZ","OM","PA","PE","PH","PL","PT","PY","QA","RO","SA","SE","SG","SK","SV","TH","TN","TR","TW","US","UY","VN","ZA"],"external_urls":{"spotify":"https://open.spotify.com/album/0pdYY0CHFRVFLBZEPEKTMZ"},"href":"https://api.spotify.com/v1/albums/0pdYY0CHFRVFLBZEPEKTMZ","id":"0pdYY0CHFRVFLBZEPEKTMZ","images":[{"height":640,"url":"https://i.scdn.co/image/ab67616d0000b273efb135bbd7001e8ad73c7f72","width":640},{"height":300,"url":"https://i.scdn.co/image/ab67616d00001e02efb135bbd7001e8ad73c7f72","width":300},{"height":64,"url":"https://i.scdn.co/image/ab67616d00004851efb135bbd7001e8ad73c7f72","width":64}],"name":"D-Sides","release_date":"2007-11-19","release_date_precision":"day","total_tracks":22,"type":"album","uri":"spotify:album:0pdYY0CHFRVFLBZEPEKTMZ"},{"album_type":"compilation","artists":[{"external_urls":{"spotify":"https://open.spotify.com/artist/3AA28KZvwAUcZuOKwyblJQ"},"href":"https://api.spotify.com/v1/artists/3AA28KZvwAUcZuOKwyblJQ","id":"3AA28KZvwAUcZuOKwyblJQ","name":"Gorillaz","type":"artist","uri":"spotify:artist:3AA28KZvwAUcZuOKwyblJQ"}],"available_markets":["AD","AE","AR","AT","AU","BE","BG","BH","BO","BR","CA","CH","CL","CO","CR","CY","CZ","DE","DK","DO","DZ","EC","EE","EG","ES","FI","FR","GB","GR","GT","HK","HN","HU","ID","IE","IL","IS","IT","JO","JP","KW","LB","LT","LU","LV","MA","MC","MT","MX","MY","NI","NL","NO","NZ","OM","PA","PE","PH","PL","PT","PY","QA","RO","SA","SE","SG","SK","SV","TH","TN","TR","TW","UY","VN","ZA"],"external_urls":{"spotify":"https://open.spotify.com/album/6z8arLj8lWDoxk99ayMYlz"},"href":"https://api.spotify.com/v1/albums/6z8arLj8lWDoxk99ayMYlz","id":"6z8arLj8lWDoxk99ayMYlz","images":[{"height":640,"url":"https://i.scdn.co/image/ab67616d0000b273e93b3a6abcfafb23945d203a","width":640},{"height":300,"url":"https://i.scdn.co/image/ab67616d00001e02e93b3a6abcfafb23945d203a","width":300},{"height":64,"url":"https://i.scdn.co/image/ab67616d00004851e93b3a6abcfafb23945d203a","width":64}],"name":"G-Sides","release_date":"2002-02-28","release_date_precision":"day","total_tracks":10,"type":"album","uri":"spotify:album:6z8arLj8lWDoxk99ayMYlz"},{"album_type":"single","artists":[{"external_urls":{"spotify":"https://open.spotify.com/artist/3AA28KZvwAUcZuOKwyblJQ"},"href":"https://api.spotify.com/v1/artists/3AA28KZvwAUcZuOKwyblJQ","id":"3AA28KZvwAUcZuOKwyblJQ","name":"Gorillaz","type":"artist","uri":"spotify:artist:3AA28KZvwAUcZuOKwyblJQ"}],"available_markets":["AD","AE","AR","AT","AU","BE","BG","BH","BO","BR","CH","CL","CO","CR","CY","CZ","DE","DK","DO","DZ","EC","EE","EG","ES","FI","FR","GB","GR","GT","HK","HN","HU","ID","IE","IL","IS","IT","JO","JP","KW","LB","LI","LT","LU","LV","MA","MC","MT","MX","MY","NI","NL","NO","NZ","OM","PA","PE","PH","PL","PS","PT","PY","QA","RO","SA","SE","SG","SK","SV","TH","TN","TR","TW","UY","VN","ZA"],"external_urls":{"spotify":"https://open.spotify.com/album/1cOrqReo4cBhPQk10rfZ0W"},"href":"https://api.spotify.com/v1/albums/1cOrqReo4cBhPQk10rfZ0W","id":"1cOrqReo4cBhPQk10rfZ0W","images":[{"height":640,"url":"https://i.scdn.co/image/ab67616d0000b2734192b8dbde4966b0d564edb1","width":640},{"height":300,"url":"https://i.scdn.co/image/ab67616d00001e024192b8dbde4966b0d564edb1","width":300},{"height":64,"url":"https://i.scdn.co/image/ab67616d000048514192b8dbde4966b0d564edb1","width":64}],"name":"Doncamatic (feat. Daley) [The Joker Remix]","release_date":"2010-11-19","release_date_precision":"day","total_tracks":2,"type":"album","uri":"spotify:album:1cOrqReo4cBhPQk10rfZ0W"},{"album_type":"compilation","artists":[{"external_urls":{"spotify":"https://open.spotify.com/artist/3AA28KZvwAUcZuOKwyblJQ"},"href":"https://api.spotify.com/v1/artists/3AA28KZvwAUcZuOKwyblJQ","id":"3AA28KZvwAUcZuOKwyblJQ","name":"Gorillaz","type":"artist","uri":"spotify:artist:3AA28KZvwAUcZuOKwyblJQ"}],"available_markets":["AD","AE","AR","AT","AU","BE","BG","BH","BO","BR","CA","CH","CL","CO","CR","CY","CZ","DE","DK","DO","DZ","EC","EE","EG","ES","FI","FR","GB","GR","GT","HK","HN","HU","ID","IE","IL","IS","IT","JO","JP","KW","LB","LT","LU","LV","MA","MC","MT","MX","MY","NI","NL","NO","NZ","OM","PA","PE","PH","PL","PT","PY","QA","RO","SA","SE","SG","SK","SV","TH","TN","TR","TW","US","UY","VN","ZA"],"external_urls":{"spotify":"https://open.spotify.com/album/5cyCeFPqDXC6R9rvx6TO1w"},"href":"https://api.spotify.com/v1/albums/5cyCeFPqDXC6R9rvx6TO1w","id":"5cyCeFPqDXC6R9rvx6TO1w","images":[{"height":640,"url":"https://i.scdn.co/image/ab67616d0000b273d7afb2c0ffc138d4ee972fd1","width":640},{"height":300,"url":"https://i.scdn.co/image/ab67616d00001e02d7afb2c0ffc138d4ee972fd1","width":300},{"height":64,"url":"https://i.scdn.co/image/ab67616d00004851d7afb2c0ffc138d4ee972fd1","width":64}],"name":"The Singles Collection 2001-2011","release_date":"2011-11-28","release_date_precision":"day","total_tracks":15,"type":"album","uri":"spotify:album:5cyCeFPqDXC6R9rvx6TO1w"},{"album_type":"single","artists":[{"external_urls":{"spotify":"https://open.spotify.com/artist/3AA28KZvwAUcZuOKwyblJQ"},"href":"https://api.spotify.com/v1/artists/3AA28KZvwAUcZuOKwyblJQ","id":"3AA28KZvwAUcZuOKwyblJQ","name":"Gorillaz","type":"artist","uri":"spotify:artist:3AA28KZvwAUcZuOKwyblJQ"}],"available_markets":["AD","AE","AR","AT","AU","BE","BG","BH","BO","BR","CA","CH","CL","CO","CR","CY","CZ","DE","DK","DO","DZ","EC","EE","EG","ES","FI","FR","GB","GR","GT","HK","HN","HU","ID","IE","IL","IS","IT","JO","JP","KW","LB","LI","LT","LU","LV","MA","MC","MT","MX","MY","NI","NL","NO","NZ","OM","PA","PE","PH","PL","PS","PT","PY","QA","RO","SA","SE","SG","SK","SV","TH","TN","TR","TW","US","UY","VN","ZA"],"external_urls":{"spotify":"https://open.spotify.com/album/06RqqeArD7wnwaNBZrY71a"},"href":"https://api.spotify.com/v1/albums/06RqqeArD7wnwaNBZrY71a","id":"06RqqeArD7wnwaNBZrY71a","images":[{"height":640,"url":"https://i.scdn.co/image/ab67616d0000b2737d8898a196e1160e1cd4047b","width":640},{"height":300,"url":"https://i.scdn.co/image/ab67616d00001e027d8898a196e1160e1cd4047b","width":300},{"height":64,"url":"https://i.scdn.co/image/ab67616d000048517d8898a196e1160e1cd4047b","width":64}],"name":"We Got the Power (feat. Jehnny Beth) [Claptone Remix]","release_date":"2017-04-07","release_date_precision":"day","total_tracks":1,"type":"album","uri":"spotify:album:06RqqeArD7wnwaNBZrY71a"},{"album_type":"single","artists":[{"external_urls":{"spotify":"https://open.spotify.com/artist/3AA28KZvwAUcZuOKwyblJQ"},"href":"https://api.spotify.com/v1/artists/3AA28KZvwAUcZuOKwyblJQ","id":"3AA28KZvwAUcZuOKwyblJQ","name":"Gorillaz","type":"artist","uri":"spotify:artist:3AA28KZvwAUcZuOKwyblJQ"}],"available_markets":["AD","AE","AR","AT","AU","BE","BG","BH","BO","BR","CA","CH","CL","CO","CR","CY","CZ","DE","DK","DO","DZ","EC","EE","EG","ES","FI","FR","GB","GR","GT","HK","HN","HU","ID","IE","IL","IS","IT","JO","JP","KW","LB","LI","LT","LU","LV","MA","MC","MT","MX","MY","NI","NL","NO","NZ","OM","PA","PE","PH","PL","PS","PT","PY","QA","RO","SA","SE","SG","SK","SV","TH","TN","TR","TW","US","UY","VN","ZA"],"external_urls":{"spotify":"https://open.spotify.com/album/5D31GSU5erwgjB6uvLzlcu"},"href":"https://api.spotify.com/v1/albums/5D31GSU5erwgjB6uvLzlcu","id":"5D31GSU5erwgjB6uvLzlcu","images":[{"height":640,"url":"https://i.scdn.co/image/ab67616d0000b2733ad5bff1fad244170ef03877","width":640},{"height":300,"url":"https://i.scdn.co/image/ab67616d00001e023ad5bff1fad244170ef03877","width":300},{"height":64,"url":"https://i.scdn.co/image/ab67616d000048513ad5bff1fad244170ef03877","width":64}],"name":"Sleeping Powder","release_date":"2017-06-16","release_date_precision":"day","total_tracks":1,"type":"album","uri":"spotify:album:5D31GSU5erwgjB6uvLzlcu"},{"album_type":"album","artists":[{"external_urls":{"spotify":"https://open.spotify.com/artist/3AA28KZvwAUcZuOKwyblJQ"},"href":"https://api.spotify.com/v1/artists/3AA28KZvwAUcZuOKwyblJQ","id":"3AA28KZvwAUcZuOKwyblJQ","name":"Gorillaz","type":"artist","uri":"spotify:artist:3AA28KZvwAUcZuOKwyblJQ"}],"available_markets":["AD","AE","AR","AT","AU","BE","BG","BH","BO","BR","CA","CH","CL","CO","CR","CY","CZ","DE","DK","DO","DZ","EC","EE","EG","ES","FI","FR","GB","GR","GT","HK","HN","HU","ID","IE","IL","IS","IT","JO","JP","KW","LB","LT","LU","LV","MA","MC","MT","MX","MY","NI","NL","NO","NZ","OM","PA","PE","PH","PL","PT","PY","QA","RO","SA","SE","SG","SK","SV","TH","TN","TR","TW","US","UY","VN","ZA"],"external_urls":{"spotify":"https://open.spotify.com/album/2w4tLG1JH25BysuILfkI0x"},"href":"https://api.spotify.com/v1/albums/2w4tLG1JH25BysuILfkI0x","id":"2w4tLG1JH25BysuILfkI0x","images":[{"height":640,"url":"https://i.scdn.co/image/ab67616d0000b273fd7e9fc9e467e3da86540571","width":640},{"height":300,"url":"https://i.scdn.co/image/ab67616d00001e02fd7e9fc9e467e3da86540571","width":300},{"height":64,"url":"https://i.scdn.co/image/ab67616d00004851fd7e9fc9e467e3da86540571","width":64}],"name":"D-Sides [Special Edition]","release_date":"2007-11-19","release_date_precision":"day","total_tracks":23,"type":"album","uri":"spotify:album:2w4tLG1JH25BysuILfkI0x"},{"album_type":"album","artists":[{"external_urls":{"spotify":"https://open.spotify.com/artist/3AA28KZvwAUcZuOKwyblJQ"},"href":"https://api.spotify.com/v1/artists/3AA28KZvwAUcZuOKwyblJQ","id":"3AA28KZvwAUcZuOKwyblJQ","name":"Gorillaz","type":"artist","uri":"spotify:artist:3AA28KZvwAUcZuOKwyblJQ"},{"external_urls":{"spotify":"https://open.spotify.com/artist/3N3tIOGCkXiF8cSbPcavZ3"},"href":"https://api.spotify.com/v1/artists/3N3tIOGCkXiF8cSbPcavZ3","id":"3N3tIOGCkXiF8cSbPcavZ3","name":"Space Monkeyz","type":"artist","uri":"spotify:artist:3N3tIOGCkXiF8cSbPcavZ3"}],"available_markets":["AD","AE","AR","AT","AU","BE","BG","BH","BO","BR","CA","CH","CL","CO","CR","CY","CZ","DE","DK","DO","DZ","EC","EE","EG","ES","FI","FR","GB","GR","GT","HK","HN","HU","ID","IE","IL","IS","IT","JO","JP","KW","LB","LT","LU","LV","MA","MC","MT","MX","MY","NI","NL","NO","NZ","OM","PA","PE","PH","PL","PT","PY","QA","RO","SA","SE","SG","SK","SV","TH","TN","TR","TW","US","UY","VN","ZA"],"external_urls":{"spotify":"https://open.spotify.com/album/0yPLNfI8WPJWFoJugr0KAv"},"href":"https://api.spotify.com/v1/albums/0yPLNfI8WPJWFoJugr0KAv","id":"0yPLNfI8WPJWFoJugr0KAv","images":[{"height":640,"url":"https://i.scdn.co/image/ab67616d0000b273c278e01ece5ea49bf8aba7b7","width":640},{"height":300,"url":"https://i.scdn.co/image/ab67616d00001e02c278e01ece5ea49bf8aba7b7","width":300},{"height":64,"url":"https://i.scdn.co/image/ab67616d00004851c278e01ece5ea49bf8aba7b7","width":64}],"name":"Laika Come Home","release_date":"2002-07-01","release_date_precision":"day","total_tracks":12,"type":"album","uri":"spotify:album:0yPLNfI8WPJWFoJugr0KAv"},{"album_type":"single","artists":[{"external_urls":{"spotify":"https://open.spotify.com/artist/3AA28KZvwAUcZuOKwyblJQ"},"href":"https://api.spotify.com/v1/artists/3AA28KZvwAUcZuOKwyblJQ","id":"3AA28KZvwAUcZuOKwyblJQ","name":"Gorillaz","type":"artist","uri":"spotify:artist:3AA28KZvwAUcZuOKwyblJQ"}],"available_markets":["AD","AE","AR","AT","AU","BE","BG","BH","BO","BR","CA","CH","CL","CO","CR","CY","CZ","DE","DK","DO","DZ","EC","EE","EG","ES","FI","FR","GB","GR","GT","HK","HN","HU","ID","IE","IL","IS","IT","JO","JP","KW","LB","LI","LT","LU","LV","MA","MC","MT","MX","MY","NI","NL","NO","NZ","OM","PA","PE","PH","PL","PS","PT","PY","QA","RO","SA","SE","SG","SK","SV","TH","TN","TR","TW","US","UY","VN","ZA"],"external_urls":{"spotify":"https://open.spotify.com/album/106oSRdZYwswMFOAPwROxf"},"href":"https://api.spotify.com/v1/albums/106oSRdZYwswMFOAPwROxf","id":"106oSRdZYwswMFOAPwROxf","images":[{"height":640,"url":"https://i.scdn.co/image/ab67616d0000b273a67d03c74564883a6b176053","width":640},{"height":300,"url":"https://i.scdn.co/image/ab67616d00001e02a67d03c74564883a6b176053","width":300},{"height":64,"url":"https://i.scdn.co/image/ab67616d00004851a67d03c74564883a6b176053","width":64}],"name":"Andromeda (feat. D.R.A.M.) [Purple Disco Machine Remix]","release_date":"2017-04-21","release_date_precision":"day","total_tracks":1,"type":"album","uri":"spotify:album:106oSRdZYwswMFOAPwROxf"},{"album_type":"single","artists":[{"external_urls":{"spotify":"https://open.spotify.com/artist/3AA28KZvwAUcZuOKwyblJQ"},"href":"https://api.spotify.com/v1/artists/3AA28KZvwAUcZuOKwyblJQ","id":"3AA28KZvwAUcZuOKwyblJQ","name":"Gorillaz","type":"artist","uri":"spotify:artist:3AA28KZvwAUcZuOKwyblJQ"}],"available_markets":["AD","AE","AR","AT","AU","BE","BG","BH","BO","BR","CA","CH","CL","CO","CR","CY","CZ","DE","DK","DO","DZ","EC","EE","EG","ES","FI","FR","GB","GR","GT","HK","HN","HU","ID","IE","IL","IS","IT","JO","JP","KW","LB","LI","LT","LU","LV","MA","MC","MT","MX","MY","NI","NL","NO","NZ","OM","PA","PE","PH","PL","PS","PT","PY","QA","RO","SA","SE","SG","SK","SV","TH","TN","TR","TW","UY","VN","ZA"],"external_urls":{"spotify":"https://open.spotify.com/album/3sB5GyaLFk9Vlf9UG7B1W8"},"href":"https://api.spotify.com/v1/albums/3sB5GyaLFk9Vlf9UG7B1W8","id":"3sB5GyaLFk9Vlf9UG7B1W8","images":[{"height":640,"url":"https://i.scdn.co/image/ab67616d0000b273f62a265816adb63a5a930fd2","width":640},{"height":300,"url":"https://i.scdn.co/image/ab67616d00001e02f62a265816adb63a5a930fd2","width":300},{"height":64,"url":"https://i.scdn.co/image/ab67616d00004851f62a265816adb63a5a930fd2","width":64}],"name":"Clint Eastwood","release_date":"2001","release_date_precision":"year","total_tracks":2,"type":"album","uri":"spotify:album:3sB5GyaLFk9Vlf9UG7B1W8"},{"album_type":"single","artists":[{"external_urls":{"spotify":"https://open.spotify.com/artist/3AA28KZvwAUcZuOKwyblJQ"},"href":"https://api.spotify.com/v1/artists/3AA28KZvwAUcZuOKwyblJQ","id":"3AA28KZvwAUcZuOKwyblJQ","name":"Gorillaz","type":"artist","uri":"spotify:artist:3AA28KZvwAUcZuOKwyblJQ"}],"available_markets":["AD","AE","AR","AT","AU","BE","BG","BH","BO","BR","CA","CH","CL","CO","CR","CY","CZ","DE","DK","DO","DZ","EC","EE","EG","ES","FI","FR","GB","GR","GT","HK","HN","HU","ID","IE","IL","IS","IT","JO","JP","KW","LB","LI","LT","LU","LV","MA","MC","MT","MX","MY","NI","NL","NO","NZ","OM","PA","PE","PH","PL","PS","PT","PY","QA","RO","SA","SE","SG","SK","SV","TH","TN","TR","TW","US","UY","VN","ZA"],"external_urls":{"spotify":"https://open.spotify.com/album/5JR95SVj6hXkfA3QpfCFvU"},"href":"https://api.spotify.com/v1/albums/5JR95SVj6hXkfA3QpfCFvU","id":"5JR95SVj6hXkfA3QpfCFvU","images":[{"height":640,"url":"https://i.scdn.co/image/ab67616d0000b2733f4927f9f72b43b135815420","width":640},{"height":300,"url":"https://i.scdn.co/image/ab67616d00001e023f4927f9f72b43b135815420","width":300},{"height":64,"url":"https://i.scdn.co/image/ab67616d000048513f4927f9f72b43b135815420","width":64}],"name":"Garage Palace (feat. Little Simz)","release_date":"2017-10-31","release_date_precision":"day","total_tracks":1,"type":"album","uri":"spotify:album:5JR95SVj6hXkfA3QpfCFvU"},{"album_type":"single","artists":[{"external_urls":{"spotify":"https://open.spotify.com/artist/3AA28KZvwAUcZuOKwyblJQ"},"href":"https://api.spotify.com/v1/artists/3AA28KZvwAUcZuOKwyblJQ","id":"3AA28KZvwAUcZuOKwyblJQ","name":"Gorillaz","type":"artist","uri":"spotify:artist:3AA28KZvwAUcZuOKwyblJQ"}],"available_markets":["AD","AE","AR","AT","AU","BE","BG","BH","BO","BR","CA","CH","CL","CO","CR","CY","CZ","DE","DK","DO","DZ","EC","EE","EG","ES","FI","FR","GB","GR","GT","HK","HN","HU","ID","IE","IL","IS","IT","JO","JP","KW","LB","LI","LT","LU","LV","MA","MC","MT","MX","MY","NI","NL","NO","NZ","OM","PA","PE","PH","PL","PS","PT","PY","QA","RO","SA","SE","SG","SK","SV","TH","TN","TR","TW","US","UY","VN","ZA"],"external_urls":{"spotify":"https://open.spotify.com/album/3S41zT1PsTvoqHHEUv7xCc"},"href":"https://api.spotify.com/v1/albums/3S41zT1PsTvoqHHEUv7xCc","id":"3S41zT1PsTvoqHHEUv7xCc","images":[{"height":640,"url":"https://i.scdn.co/image/ab67616d0000b2739c5befaf7376a9f21a0006c1","width":640},{"height":300,"url":"https://i.scdn.co/image/ab67616d00001e029c5befaf7376a9f21a0006c1","width":300},{"height":64,"url":"https://i.scdn.co/image/ab67616d000048519c5befaf7376a9f21a0006c1","width":64}],"name":"Humility (feat. George Benson)","release_date":"2018-05-31","release_date_precision":"day","total_tracks":1,"type":"album","uri":"spotify:album:3S41zT1PsTvoqHHEUv7xCc"}],"limit":20,"next":"https://api.spotify.com/v1/search?query=artist%3Agorillaz&type=album&market=AR&offset=20&limit=20","offset":0,"previous":null,"total":76}}